Introduction to groupr
…
Introduction to groupr

The groupr package is designed to make certain forms of data manipulation easier by representing the underlying data in richer ways. In particular, the standard grouping function dplyr::group_by is extended to include groups that can be marked “inapplicable” at certain values of the grouping variable. The hope is that code that can recognize these kinds of groups will be simpler to write and easier to understand. The package also provides functions for some tasks, like pivoting, that are especially well suited to this idea.

The meaning of inapplicable groups

In dplyr, groups are denoted with a grouping column that contains unique values for every group. For example, we can group mtcars by the variable vs:

library(dplyr, warn.conflicts = FALSE)
group_by(mtcars, vs)
#> # A tibble: 32 x 11
#> # Groups:   vs [2]
#>      mpg   cyl  disp    hp  drat    wt  qsec    vs    am  gear  carb
#>    <dbl> <dbl> <dbl> <dbl> <dbl> <dbl> <dbl> <dbl> <dbl> <dbl> <dbl>
#>  1  21       6  160    110  3.9   2.62  16.5     0     1     4     4
#>  2  21       6  160    110  3.9   2.88  17.0     0     1     4     4
#>  3  22.8     4  108     93  3.85  2.32  18.6     1     1     4     1
#>  4  21.4     6  258    110  3.08  3.22  19.4     1     0     3     1
#>  5  18.7     8  360    175  3.15  3.44  17.0     0     0     3     2
#>  6  18.1     6  225    105  2.76  3.46  20.2     1     0     3     1
#>  7  14.3     8  360    245  3.21  3.57  15.8     0     0     3     4
#>  8  24.4     4  147.    62  3.69  3.19  20       1     0     4     2
#>  9  22.8     4  141.    95  3.92  3.15  22.9     1     0     4     2
#> 10  19.2     6  168.   123  3.92  3.44  18.3     1     0     4     4
#> # … with 22 more rows
…
The data should be excluded from the input of a calculation

These different meanings will be clear in the context of actual data cleaning operations.

Data cleaning and representation

Pivoting

As an operation on groups

Pivoting can be thought of as a simple rearrangement of groups. Consider the iris dataset:

as_tibble(iris)
#> # A tibble: 150 x 5
#>    Sepal.Length Sepal.Width Petal.Length Petal.Width Species
#>           <dbl>       <dbl>        <dbl>       <dbl> <fct>  
#>  1          5.1         3.5          1.4         0.2 setosa 
#>  2          4.9         3            1.4         0.2 setosa 
#>  3          4.7         3.2          1.3         0.2 setosa 
#>  4          4.6         3.1          1.5         0.2 setosa 
#>  5          5           3.6          1.4         0.2 setosa 
#>  6          5.4         3.9          1.7         0.4 setosa 
#>  7          4.6         3.4          1.4         0.3 setosa 
#>  8          5           3.4          1.5         0.2 setosa 
#>  9          4.4         2.9          1.4         0.2 setosa 
#> 10          4.9         3.1          1.5         0.1 setosa 
#> # … with 140 more rows
…
